{
  "type": "service_account",
  "project_id": "jacob-gcp-2020",
  "private_key_id": "726c457e0e09ea96faaa8fcbc9f27c5432fa4204",
  "private_key": "-----BEGIN PRIVATE KEY-----\nMIIEvQIBADANBgkqhkiG9w0BAQEFAASCBKcwggSjAgEAAoIBAQCINHyhqurbZo/P\nV1FkVRgRxk6XAKHFoGmCRijhDbOKYdwkHTPWgbC/6V5Y/HDXs+xZRDihEj2p3NlE\nKnVJaNauqZkSUvg/+v/nehB9GHEXIy8oXBtvWsGYVbAjYJxPEZ/Ng6MEcmBV3nW1\n/7brMPRt50JvDToOdcjHE4gLKDRs9jSel2qly1RKGqvcYEVgvORVja3k89p77qQR\n6bJF9IJgpJfslvyuuC7mWBvQ/iVCxQrIWac0zFXBXY7BpG99hmO732Pn2IX6azva\noYt/48nsQmBLLBHVY4SZBnPNZ8gBlV2UFRVy+ADXdXwFOJ7yeSRhglvfitkBp4mS\nHWO3LG6dAgMBAAECggEAA75Xj5T0RAf3W2ZFuyl4kiJ+bfmLOLSOOdGmVXssLFlA\ntPBliJeDbV7jZDQ6AL+19wUgPlMTRUwn348ALr6WKfJI3f9QSefi6TCKa/nEP/PM\nW8JeUarvp7lxMCO7YBP2ra4YyKpBGhMVbqVi2Gd9zFh/E7DMH/IeTNRtWIsoF7eJ\nWm61IWl0S/OJnveebc9z3+BjEkbcHKpy67oUwv1SrmYiF2WS6uvUYbaWpnCP9dRD\ncvGDZixJPmMKEIqEcNHlSOLKIFNYZocJDYsrxS2SFCCJ0a6r82a2bbmdYrAK+WkD\n0fiFJubYUvMYyrWRY7LVHA4DoGH6fj7E+IPcDe4EIQKBgQC7wuycb+18bYX10eGK\nBTeJjxxOzIljgpsFRYsOAlgKFQDcomYl2JHkJh8YUwIWuAshQSCZ79l5uI60pOhM\nymuIaAQiS3gvzogddCknAP5qyohuKN+gZzw4JNm3Mmeq/lkjOxylqHeAlMO7FTAy\nzvCCc1nuGN6lSq8el/Zyc66QYQKBgQC5tNLE0DNfNlHnG8O2SWGnwmQE7iTXC7kV\njZYbY5zNCmVOInqy4UVo1uVJabOouc7xR7Lx9IQWCCDUIbKUkE7S1MmYgMXaC2vL\nbKgHyBOhwnORGnKVlyIHWuf4AXI3K4dg5oxVlJEGvRLujSKGCdlQnbvkSUTubul2\n1u35/6c3vQKBgEV9Y9KV/h/h7QVIcx+AxMgtZf2n52UjzjnKPiemKG06zsHZfNKe\n74evsCxxdEFyRfQ9xVITmbpZ2r7ylWLuO5QVYwpKQiX3WxsDhcOAs6hUYt/aUsFr\n07a3tLf/eKypS9YlJ3oL+oZlCHex5M+5FPxCstLS83vbQyqgdT5wn/ehAoGAPBy6\nNRcn6eQNcv/bxD/QqpsUATyNFEcpLD7enhMKiJya2kXy7cBZ1WvqYG8kxrMOt697\nzzJVJ0SOS9x0j/5+ZWSXtRPJ96DGzdxoL8yl/jCRdCDZgm6fhz335KGjNRSUB9vZ\nBULIByRg4nMw/65kd+H3FhhZhczFKcC827XTjQkCgYEAqNeZ5o+HZLsiKJx8gG1F\n+YA1tRfQOsu/PF9/t0y8sUjEqhgWcFzTsGOOFkHWlD5WKoJXIZbfc9o4iH0tBJOV\n9AV0Lh48/NRpHMbjgW/sEZC1NPn0s5gSGzCJNTt0xNbAxltGsjjth2ZeGN5r4rVm\nEgrravygoY8aoU9U9dRqKwc=\n-----END PRIVATE KEY-----\n",
  "client_email": "jacob-project-ds2020-gcs@jacob-gcp-2020.iam.gserviceaccount.com",
  "client_id": "107670765201033291604",
  "auth_uri": "https://accounts.google.com/o/oauth2/auth",
  "token_uri": "https://oauth2.googleapis.com/token",
  "auth_provider_x509_cert_url": "https://www.googleapis.com/oauth2/v1/certs",
  "client_x509_cert_url": "https://www.googleapis.com/robot/v1/metadata/x509/jacob-project-ds2020-gcs%40jacob-gcp-2020.iam.gserviceaccount.com"
}
